<?xml version="1.0" encoding="UTF-8"?>
<svg width="609px" height="166px" viewBox="0 0 609 166" version="1.1" xmlns="http://www.w3.org/2000/svg" xmlns:xlink="http://www.w3.org/1999/xlink">
    <title>Ratmir-logo</title>
    <desc>Created with Sketch.</desc>
    <g id="Ratmir-logo" stroke="none" stroke-width="1" fill="none" fill-rule="evenodd">
        <path d="m598.2 144.64c0-1.4469-0.30781-2.7308-0.92143-3.8497-0.61462-1.1179-1.4511-1.9802-2.5104-2.5859-1.0583-0.60573-2.2536-0.9086-3.5868-0.9086-1.3082 0-2.4914 0.30991-3.5498 0.92772-1.0593 0.61881-1.8968 1.4811-2.5104 2.5859-0.61462 1.1058-0.92142 2.3837-0.92142 3.8306 0 1.4479 0.29981 2.7318 0.90244 3.8507 0.60063 1.1189 1.4371 1.9883 2.5094 2.6061 1.0723 0.61881 2.2616 0.92772 3.5698 0.92772 1.3332 0 2.5284-0.3089 3.5868-0.92772 1.0593-0.61781 1.8958-1.4872 2.5104-2.6061 0.61362-1.1189 0.92143-2.4028 0.92143-3.8507zm3.8046 0c0 2.107-0.45172 3.9685-1.3532 5.5884-0.90144 1.618-2.1507 2.8757-3.7457 3.7712-1.595 0.89451-3.3979 1.3423-5.4116 1.3423-1.4901 0-2.8562-0.28979-4.0984-0.86936-1.2422-0.57856-2.2936-1.4218-3.157-2.5266v10.82h-3.7647v-28.589h3.6078v3.3154c0.83648-1.1571 1.8958-2.0325 3.177-2.6252 1.2802-0.59265 2.6923-0.88848 4.2354-0.88848 2.0137 0 3.8166 0.44877 5.4116 1.3423 1.595 0.89552 2.8442 2.1462 3.7457 3.7521 0.90144 1.6049 1.3532 3.4613 1.3532 5.5673zm-44.354-7.148h7.6073v17.613h3.7657v-17.613h7.6083v-3.3154h-18.981v3.3154zm-7.6083 5.5693h-11.844v-8.8847h-3.7657v20.928h3.7657v-8.767h11.844v8.767h3.7647v-20.928h-3.7647v8.8847zm-25.06 0.11773c-0.20987-1.7629-0.92143-3.2047-2.1367-4.3236-1.2162-1.1179-2.7263-1.6783-4.5302-1.6783s-3.3139 0.55341-4.5292 1.6582c-1.2162 1.1058-1.9278 2.5547-2.1367 4.3438h13.333zm2.2946-4.0278c0.87546 1.6331 1.3142 3.5016 1.3142 5.6076 0 0.28979-0.026984 0.67114-0.077952 1.1451h-16.863c0.23485 1.8434 1.0394 3.3245 2.4115 4.4424 1.3731 1.1189 3.0791 1.6783 5.1178 1.6783 2.4835 0 4.4832-0.84219 6.0003-2.5276l2.0787 2.4491c-0.94241 1.1048-2.1127 1.948-3.5108 2.5266-1.3981 0.57957-2.9602 0.86936-4.6861 0.86936-2.1966 0-4.1444-0.4538-5.8434-1.3634-1.6999-0.90759-3.0141-2.1774-3.9405-3.8105-0.92942-1.6311-1.3931-3.4744-1.3931-5.5281 0-2.0265 0.45072-3.8558 1.3522-5.4888 0.90344-1.631 2.1447-2.9019 3.7267-3.8105 1.581-0.9086 3.3659-1.3624 5.3527-1.3624 1.9878 0 3.7587 0.4538 5.3147 1.3624 1.554 0.9086 2.7703 2.1794 3.6467 3.8105zm-25.627-4.9747h-3.7657v17.612h-11.373v-17.612h-3.7647v20.928h18.627v5.0149h3.5698v-8.3313h-3.2939v-17.612zm-46.944-2.7248c1.9088 0 3.4119-0.46688 4.5112-1.4026 1.0973-0.93375 1.659-2.2841 1.686-4.0469h-2.6284c-0.025984 0.974-0.36577 1.7578-1.0194 2.3495s-1.5171 0.88848-2.5884 0.88848c-1.0713 0-1.9288-0.29683-2.5684-0.88848-0.6406-0.59165-0.97439-1.3755-0.99938-2.3495h-2.5494c0.024985 1.7629 0.57464 3.1132 1.646 4.0469 1.0733 0.93577 2.5754 1.4026 4.5102 1.4026zm-5.9613 17.967v-15.242h-3.7637v20.928h3.4508l12.706-15.242v15.242h3.7647v-20.928h-3.4119l-12.746 15.242zm-14.863 5.686h3.7657v-20.929h-3.7657v20.929zm-6.9017-7.0283c0-1.3684-0.43173-2.3696-1.2942-3.0015-0.86246-0.63189-2.1567-0.95992-3.8826-0.98708l-4.7061-0.079489v8.2136l4.7061 0.039242c1.6989 0.027167 2.9861-0.31494 3.8626-1.0253 0.87545-0.71138 1.3142-1.7639 1.3142-3.1595zm3.8046 0.039242c0 2.264-0.75253 4.0077-2.2556 5.2322-1.5031 1.2235-3.6547 1.8222-6.451 1.7961l-8.7456-0.039242v-20.928h3.7647v7.0676l5.6085 0.039242c2.6144 0.027167 4.6141 0.63189 5.9993 1.8172 1.3861 1.1843 2.0797 2.8566 2.0797 5.0149zm-27.1 0.98708c0-1.0797-0.35978-1.8826-1.0783-2.4088-0.71955-0.52624-1.8488-0.78987-3.3919-0.78987h-6.2751v6.2787h6.0392c1.569 0 2.7453-0.24954 3.5308-0.75062 0.78351-0.49908 1.1753-1.2769 1.1753-2.3294zm-10.745-5.9235h5.6475c1.4371 0 2.5294-0.26262 3.275-0.78886 0.74454-0.52725 1.1173-1.291 1.1173-2.2911 0-2.0003-1.4651-3.0005-4.3923-3.0005h-5.6475v6.0805zm14.511 6.16c0 1.8434-0.68757 3.2651-2.0597 4.2653-1.3721 1.0002-3.4189 1.5002-6.1372 1.5002h-10.001v-20.928h9.648c2.4565 0 4.3783 0.46688 5.7654 1.4006 1.3841 0.93577 2.0777 2.2579 2.0777 3.9695 0 1.1058-0.29382 2.0597-0.88245 2.8626s-1.4051 1.4147-2.4505 1.8353c2.6923 0.68522 4.0395 2.3837 4.0395 5.0944zm-27.452-4.699c0-1.4469-0.30181-2.7308-0.90244-3.8497-0.60162-1.1179-1.4311-1.9802-2.4894-2.5859-1.0593-0.60573-2.2556-0.9086-3.5888-0.9086-1.3332 0-2.5294 0.30287-3.5888 0.9086s-1.8958 1.468-2.5104 2.5859c-0.61462 1.1189-0.92143 2.4028-0.92143 3.8497 0 1.4479 0.30681 2.7318 0.92143 3.8507s1.4511 1.9883 2.5104 2.6061c1.0593 0.61881 2.2556 0.92772 3.5888 0.92772 1.3332 0 2.5294-0.3089 3.5888-0.92772 1.0583-0.61781 1.8878-1.4872 2.4894-2.6061 0.60063-1.1189 0.90244-2.4028 0.90244-3.8507zm2.4115-5.5089c0.92742 1.62 1.3921 3.4563 1.3921 5.5089 0 2.0537-0.46471 3.89-1.3921 5.5089-0.92742 1.619-2.2096 2.8898-3.8426 3.8105-1.635 0.92168-3.4848 1.3825-5.5495 1.3825-2.0667 0-3.9226-0.46084-5.5685-1.3825-1.648-0.92067-2.9362-2.1915-3.8636-3.8105-0.92842-1.619-1.3921-3.4553-1.3921-5.5089 0-2.0526 0.46371-3.889 1.3921-5.5089 0.92742-1.618 2.2156-2.8818 3.8636-3.7904 1.646-0.9086 3.5018-1.3624 5.5685-1.3624 2.0647 0 3.9146 0.4538 5.5495 1.3624 1.633 0.9086 2.9152 2.1724 3.8426 3.7904zm-36.53 15.973h3.7647v-17.613h11.53v-3.3154h-15.294v20.928zm-14.707-4.1858l-7.2555-16.742h-3.9216l9.1773 20.889-0.66658 1.461c-0.49669 1.1843-1.0533 2.0194-1.667 2.5075-0.61462 0.487-1.3791 0.7305-2.2946 0.7305-1.4111 0-2.6533-0.51316-3.7257-1.5405l-1.608 2.8435c0.62761 0.63189 1.4181 1.1119 2.3725 1.4419 0.9544 0.32802 1.9408 0.49304 2.9612 0.49304 1.673 0 3.1041-0.43468 4.2943-1.303 1.1893-0.86835 2.2286-2.3686 3.1181-4.5017l10.079-23.021h-3.6867l-7.1765 16.742zm-24.453-12.714c1.0853-0.60573 2.3076-0.9086 3.6667-0.9086 1.1773 0 2.2486 0.24954 3.216 0.74962 0.9664 0.50008 1.7779 1.2507 2.4315 2.2519l2.8622-1.8564c-0.8095-1.4479-1.9548-2.5527-3.4309-3.3174-1.4781-0.7627-3.157-1.1451-5.0389-1.1451-2.1177 0-4.0075 0.4538-5.6675 1.3624-1.66 0.9086-2.9612 2.1724-3.9016 3.7904-0.94141 1.62-1.4121 3.4563-1.4121 5.5089 0 2.0537 0.47071 3.89 1.4121 5.5089 0.94041 1.619 2.2416 2.8898 3.9016 3.8105 1.66 0.92168 3.5498 1.3825 5.6675 1.3825 1.8818 0 3.5608-0.38839 5.0389-1.1652 1.4761-0.77679 2.6214-1.8886 3.4309-3.3366l-2.8622-1.8172c-0.65359 1.0022-1.4651 1.7518-2.4315 2.2519-0.9674 0.50008-2.0387 0.74962-3.216 0.74962-1.3592 0-2.5814-0.30186-3.6667-0.90759-1.0853-0.60573-1.9348-1.467-2.5494-2.5869-0.61362-1.1189-0.92143-2.4149-0.92143-3.89 0-1.4469 0.30781-2.7308 0.92143-3.8497 0.61462-1.1179 1.4641-1.9802 2.5494-2.5859zm-14.608 6.4357c0-1.4469-0.30081-2.7308-0.90244-3.8497-0.60162-1.1179-1.4311-1.9802-2.4894-2.5859-1.0593-0.60573-2.2556-0.9086-3.5888-0.9086s-2.5294 0.30287-3.5878 0.9086c-1.0593 0.60573-1.8968 1.468-2.5104 2.5859-0.61462 1.1189-0.92143 2.4028-0.92143 3.8497 0 1.4479 0.30681 2.7318 0.92143 3.8507 0.61362 1.1189 1.4511 1.9883 2.5104 2.6061 1.0583 0.61881 2.2546 0.92772 3.5878 0.92772s2.5294-0.3089 3.5888-0.92772c1.0583-0.61781 1.8878-1.4872 2.4894-2.6061 0.60163-1.1189 0.90244-2.4028 0.90244-3.8507zm2.4115-5.5089c0.92842 1.62 1.3921 3.4563 1.3921 5.5089 0 2.0537-0.46371 3.89-1.3921 5.5089-0.92742 1.619-2.2096 2.8898-3.8426 3.8105-1.635 0.92168-3.4848 1.3825-5.5495 1.3825-2.0657 0-3.9216-0.46084-5.5685-1.3825-1.647-0.92067-2.9352-2.1915-3.8636-3.8105-0.92842-1.619-1.3921-3.4553-1.3921-5.5089 0-2.0526 0.46371-3.889 1.3921-5.5089 0.92842-1.618 2.2166-2.8818 3.8636-3.7904 1.647-0.9086 3.5028-1.3624 5.5685-1.3624 2.0647 0 3.9146 0.4538 5.5495 1.3624 1.633 0.9086 2.9152 2.1724 3.8426 3.7904zm-30.137-1.6391h-9.0204l-0.19588 4.0288c-0.10493 2.6332-0.3208 4.8116-0.6476 6.5353-0.3268 1.7246-0.92143 2.9683-1.7839 3.732h11.648v-14.296zm3.7647 14.296h3.176v8.1744h-3.5288v-4.8579h-17.374v4.8579h-3.5678v-8.1744h1.0973c1.3342-0.07949 2.2486-1.0273 2.7453-2.8435 0.49669-1.8162 0.83648-4.383 1.0204-7.7005l0.31281-7.0676h16.119v17.612zm-34.041-5.8843h10.549v-3.2772h-10.549v3.2772zm-8.2359-1.2638c0-1.4469-0.29981-2.7308-0.90144-3.8497-0.60163-1.1179-1.4321-1.9802-2.4904-2.5859-1.0593-0.60573-2.2546-0.9086-3.5878-0.9086-1.3342 0-2.5304 0.30287-3.5888 0.9086-1.0593 0.60573-1.8958 1.468-2.5104 2.5859-0.61462 1.1189-0.92142 2.4028-0.92142 3.8497 0 1.4479 0.30681 2.7318 0.92142 3.8507 0.61462 1.1189 1.4511 1.9883 2.5104 2.6061 1.0583 0.61881 2.2546 0.92772 3.5888 0.92772 1.3332 0 2.5284-0.3089 3.5878-0.92772 1.0583-0.61781 1.8888-1.4872 2.4904-2.6061 0.60162-1.1189 0.90144-2.4028 0.90144-3.8507zm2.4125-5.5089c0.92742 1.62 1.3921 3.4563 1.3921 5.5089 0 2.0537-0.46471 3.89-1.3921 5.5089-0.92842 1.619-2.2096 2.8898-3.8436 3.8105-1.634 0.92168-3.4848 1.3825-5.5485 1.3825-2.0657 0-3.9226-0.46084-5.5695-1.3825-1.647-0.92067-2.9352-2.1915-3.8626-3.8105-0.92842-1.619-1.3931-3.4553-1.3931-5.5089 0-2.0526 0.46471-3.889 1.3931-5.5089 0.92742-1.618 2.2156-2.8818 3.8626-3.7904 1.647-0.9086 3.5038-1.3624 5.5695-1.3624 2.0637 0 3.9146 0.4538 5.5485 1.3624 1.634 0.9086 2.9152 2.1724 3.8436 3.7904zm-29.394 3.9302h-11.844v-8.8847h-3.7647v20.928h3.7647v-8.767h11.844v8.767h3.7647v-20.928h-3.7647v8.8847zm-25.256 6.0412c0-1.0797-0.35878-1.8826-1.0783-2.4088-0.71855-0.52624-1.8498-0.78987-3.3919-0.78987h-6.2751v6.2787h6.0392c1.569 0 2.7453-0.24954 3.5298-0.75062 0.78451-0.49908 1.1763-1.2769 1.1763-2.3294zm-10.745-5.9235h5.6475c1.4371 0 2.5294-0.26262 3.275-0.78886 0.74454-0.52725 1.1173-1.291 1.1173-2.2911 0-2.0003-1.4651-3.0005-4.3923-3.0005h-5.6475v6.0805zm14.51 6.16c0 1.8434-0.68557 3.2651-2.0587 4.2653-1.3721 1.0002-3.4189 1.5002-6.1372 1.5002h-10.001v-20.928h9.648c2.4575 0 4.3793 0.46688 5.7644 1.4006 1.3861 0.93577 2.0787 2.2579 2.0787 3.9695 0 1.1058-0.29382 2.0597-0.88145 2.8626-0.58863 0.80295-1.4061 1.4147-2.4515 1.8353 2.6923 0.68522 4.0385 2.3837 4.0385 5.0944zm-41.647 0.07949v-15.242h-3.7657v20.928h3.4518l12.706-15.242v15.242h3.7647v-20.928h-3.4119l-12.745 15.242zm-26.589-11.926h7.6073v17.613h3.7657v-17.613h7.6083v-3.3154h-18.981v3.3154zm-4.9809 7.148c0-1.4469-0.30781-2.7308-0.92143-3.8497-0.61462-1.1179-1.4511-1.9802-2.5104-2.5859-1.0583-0.60573-2.2546-0.9086-3.5878-0.9086-1.3082 0-2.4904 0.30991-3.5488 0.92772-1.0593 0.61881-1.8968 1.4811-2.5104 2.5859-0.61462 1.1058-0.92143 2.3837-0.92143 3.8306 0 1.4479 0.29981 2.7318 0.90144 3.8507s1.4381 1.9883 2.5104 2.6061c1.0713 0.61881 2.2606 0.92772 3.5688 0.92772 1.3332 0 2.5294-0.3089 3.5878-0.92772 1.0593-0.61781 1.8958-1.4872 2.5104-2.6061 0.61362-1.1189 0.92143-2.4028 0.92143-3.8507zm2.4515-5.5673c0.90144 1.6049 1.3522 3.4613 1.3522 5.5673 0 2.107-0.45072 3.9685-1.3522 5.5884-0.90244 1.618-2.1507 2.8757-3.7457 3.7712-1.595 0.89451-3.3989 1.3423-5.4116 1.3423-1.4901 0-2.8572-0.28979-4.0984-0.86936-1.2422-0.57856-2.2946-1.4218-3.157-2.5266v10.82h-3.7647v-28.589h3.6078v3.3154c0.83648-1.1571 1.8948-2.0325 3.177-2.6252 1.2802-0.59265 2.6923-0.88848 4.2354-0.88848 2.0127 0 3.8166 0.44877 5.4116 1.3423 1.595 0.89552 2.8432 2.1462 3.7457 3.7521zm-29.433 5.5673c0-1.4469-0.30081-2.7308-0.90244-3.8497-0.60163-1.1179-1.4311-1.9802-2.4894-2.5859-1.0593-0.60573-2.2556-0.9086-3.5888-0.9086-1.3332 0-2.5294 0.30287-3.5878 0.9086-1.0593 0.60573-1.8968 1.468-2.5104 2.5859-0.61462 1.1189-0.92143 2.4028-0.92143 3.8497 0 1.4479 0.30681 2.7318 0.92143 3.8507 0.61362 1.1189 1.4511 1.9883 2.5104 2.6061 1.0583 0.61881 2.2546 0.92772 3.5878 0.92772 1.3332 0 2.5294-0.3089 3.5888-0.92772 1.0583-0.61781 1.8878-1.4872 2.4894-2.6061s0.90244-2.4028 0.90244-3.8507zm2.4115-5.5089c0.92842 1.62 1.3921 3.4563 1.3921 5.5089 0 2.0537-0.46371 3.89-1.3921 5.5089-0.92742 1.619-2.2096 2.8898-3.8426 3.8105-1.635 0.92168-3.4848 1.3825-5.5495 1.3825-2.0657 0-3.9216-0.46084-5.5685-1.3825-1.647-0.92067-2.9352-2.1915-3.8636-3.8105-0.92742-1.619-1.3921-3.4553-1.3921-5.5089 0-2.0526 0.46471-3.889 1.3921-5.5089 0.92842-1.618 2.2166-2.8818 3.8636-3.7904 1.647-0.9086 3.5028-1.3624 5.5685-1.3624 2.0647 0 3.9146 0.4538 5.5495 1.3624 1.633 0.9086 2.9152 2.1724 3.8426 3.7904zm-44.844 15.973h3.7647v-17.613h11.727v17.613h3.7647v-20.928h-19.256v20.928zm-24.452-19.25c-0.92842 1.618-1.3921 3.4291-1.3921 5.4285 0 2.0013 0.46371 3.8105 1.3921 5.4305 0.92842 1.619 2.2156 2.8898 3.8636 3.8105 1.647 0.92168 3.4898 1.3825 5.5296 1.3825 3.0581 0 5.6335-1.1068 7.7252-3.3174l2.5494 2.4873c-1.2552 1.4218-2.7783 2.5014-4.5692 3.238-1.7909 0.73754-3.7587 1.1058-5.9013 1.1058-2.7453 0-5.2227-0.61278-7.4324-1.8353-2.2096-1.2245-3.9415-2.9089-5.1968-5.0552-1.2542-2.1462-1.8818-4.5611-1.8818-7.2467 0-2.6845 0.62761-5.0994 1.8818-7.2456 1.2552-2.1452 2.9941-3.8306 5.2167-5.0552 2.2216-1.2225 4.7061-1.8353 7.4514-1.8353 2.1437 0 4.1044 0.36223 5.8823 1.0857 1.7779 0.72446 3.2939 1.7961 4.5492 3.2188l-2.5494 2.4873c-2.0657-2.1855-4.6411-3.2782-7.7252-3.2782-2.0397 0-3.8826 0.46084-5.5296 1.3825-1.648 0.92168-2.9352 2.1915-3.8636 3.8115z" fill="#30292B"/>
        <path d="m392.34 71.42c-3.5411-21.833-7.1513-43.656-10.558-65.511-0.44802-2.8831-1.5511-3.5999-4.2832-3.5039-5.5872 0.19794-11.193 0.23493-16.776-0.012996-2.8681-0.12796-4.2152 0.81775-5.1552 3.4979-7.4003 21.126-16.155 41.769-22.78 63.175-0.20101 0.6508-0.23201 1.4016-1.106 1.6135-0.15901-0.17195-0.41702-0.3239-0.47302-0.52984-5.9643-22.065-15.261-42.964-22.687-64.515-0.78803-2.2843-1.8191-3.324-4.4202-3.235-6.0063 0.20694-12.028 0.15795-18.037 0.020993-2.2821-0.052984-3.2121 0.75876-3.5742 2.9641-4.9332 30.064-9.9164 60.117-14.937 90.166-0.32001 1.9134 0.015001 2.7282 2.1561 2.9351 6.9523 0.67279 13.897 1.4675 20.819 2.4103 2.7701 0.37688 4.0152-0.27991 4.2882-3.259 1.4171-15.381 3.0381-30.743 4.5022-46.121 0.49602-5.1924 0.74203-10.408 1.101-15.612 0.38802-0.020993 0.77503-0.040987 1.162-0.06298 2.7591 20.781 11.565 39.694 17.963 59.352 0.84604 2.5982 2.0191 3.8508 5.0162 3.6969 5.2982-0.27192 10.626-0.17595 15.936-0.03299 2.3651 0.06398 3.4241-0.77576 4.1132-3.0511 5.5642-18.357 12.288-36.371 16.408-55.156 0.39602-1.8104 0.51102-3.7378 2.0771-6.0411-0.079004 21.854 3.8342 42.546 6.3833 63.387 0.32101 2.6282 1.2331 3.248 3.6742 2.9261 6.7863-0.89672 13.581-1.7994 20.4-2.3643 2.8111-0.23293 3.0791-1.2076 2.6341-3.6629-1.4161-7.8006-2.5761-15.647-3.8462-23.475m186.97-38.141c-0.114-6.9968-3.5932-10.418-11.343-11.061-2.2171-0.18394-4.4512-0.14496-6.6713-0.30591-2.1421-0.15595-2.9921 0.66779-2.8831 2.8661 0.15101 3.0431 0.037001 6.0981 0.036001 9.1482v3.7438c0 9.3811 0 9.3811 9.5684 8.2884 7.8153-0.89272 11.419-4.9385 11.293-12.68m-2.8891 31.68c-4.4322 0.71278-8.8974 1.2136-13.359 0.86073-3.5682-0.28191-4.8722 0.6328-4.7162 4.4936 0.33301 8.2005 2e-3 16.427 0.15901 24.638 0.051002 2.6722-0.64303 3.6339-3.4631 3.5319-5.8642-0.21093-11.751-0.26492-17.61 0.013996-3.3991 0.16195-4.5142-0.67579-4.4602-4.2717 0.21901-14.616 0.091004-29.238 0.091004-43.857 1e-3 -14.758 0.088004-29.518-0.072003-44.276-0.032002-3.079 0.72803-4.0897 3.9292-3.9608 13.255 0.53883 26.597-1.0737 39.774 1.0727 12.907 2.1023 23.448 7.7086 27.014 21.514 5.2592 20.356-5.9903 36.811-27.287 40.241m-319.17-62.819c-12.999 0.12596-25.998 0.055983-38.998 0.055983-12.999 0-25.999 0.083974-38.997-0.06398-2.9421-0.03299-3.8872 0.83674-3.7522 3.7518 0.21801 4.7225 0.23201 9.4711-3e-3 14.193-0.15701 3.172 0.68903 4.4026 4.1262 4.2717 6.9783-0.26592 13.984 0.13196 20.96-0.16295 3.7922-0.15995 4.9322 0.88173 4.8982 4.7865-0.19801 21.852-0.032001 43.707-0.16601 65.561-0.018001 3.094 0.74903 4.1147 3.9422 3.9618 5.5782-0.26692 11.191-0.3069 16.765 0.0069979 3.7612 0.21193 4.9402-0.81875 4.9052-4.7315-0.19501-21.852-0.037001-43.707-0.15701-65.561-0.017001-3.097 0.83904-4.1037 4.0122-4.0098 7.5413 0.21993 15.095-0.015995 22.641 0.11596 2.4941 0.043986 3.4581-0.62381 3.3611-3.255-0.19001-5.1434-0.20601-10.305 0.005001-15.446 0.114-2.7821-0.84304-3.4999-3.5432-3.4739m253.17 3.108c6e-3 -2.3813-0.77003-3.144-3.1361-3.094-6.1503 0.12996-12.306 0.077976-18.46 0.019994-1.5381-0.013996-2.5691 0.46286-3.4961 1.7405-14.057 19.401-28.831 38.287-42.72 58.533 0-1.3906-2e-3 -2.4652 0-3.5399 0.034001-17.688 1e-3 -35.377 0.16901-53.064 0.028001-2.9421-0.79903-3.8178-3.7432-3.7138-6.1443 0.21893-12.308 0.18594-18.457 0.0099969-2.5961-0.073977-3.3091 0.74377-3.3031 3.302 0.082004 29.945 0.088004 59.889-7e-3 89.834-9e-3 2.6922 0.91604 3.262 3.3841 3.194 5.7292-0.15895 11.469-0.17095 17.199 0.0069978 2.3911 0.074977 3.8052-0.80175 5.1912-2.6472 12.554-16.729 25.169-33.411 37.843-50.048 1.4201-1.8654 1.9641-4.4126 4.3672-6.0411-0.72003 18.547-0.16001 36.651-0.43102 54.747-0.045002 3.0281 0.65203 4.1577 3.9172 4.0118 6.1403-0.27591 12.304-0.15295 18.457-0.040987 2.2251 0.039988 3.2391-0.42987 3.2321-2.9581-0.075003-30.084-0.070003-60.168-6e-3 -90.252m-422.89 68.636c-2.3431 6.0941-4.6912 12.184-7.0553 18.27-1.072 2.7631-0.58402 3.7788 2.2941 4.3656 6.1513 1.2556 12.257 2.7431 18.357 4.2317 2.1681 0.52884 3.2731 0.056982 3.8972-2.2663 0.68803-2.0574 2.4101-7.2508 4.6472-14.013-7.9263-2.2543-15.416-5.8422-22.14-10.589m-38.224-40.505c-0.081003-7.0238-3.5581-10.493-11.245-11.156-1.9401-0.16795-3.9012-0.11097-5.8352-0.3219-2.7871-0.30591-4.1212 0.53483-3.8362 3.6129 0.25401 2.7491 0.053002 5.5403 0.053002 8.3134v3.327c0 9.9739 0 9.9739 9.8844 8.7693 7.5123-0.91572 11.065-4.9765 10.979-12.545m-2.8641 31.575c-4.4312 0.71678-8.9074 1.2896-13.356 0.85074-4.0772-0.40387-4.8332 1.2596-4.7212 4.8965 0.24801 8.0685-0.018001 16.151 0.13101 24.223 0.049002 2.6292-0.56602 3.6629-3.4321 3.5619-6.1443-0.21693-12.308-0.23893-18.45 0.0059982-3.1001 0.12296-3.6382-1.0507-3.6152-3.8208 0.12301-14.757 0.058002-29.517 0.058002-44.275 0-14.898-0.014001-29.797 0.024001-44.694 0.0040002-1.4935-0.72503-3.5829 2.1251-3.5019 14.098 0.40088 28.292-1.2796 42.281 1.1306 12.57 2.1663 22.754 7.9245 26.216 21.359 5.2472 20.357-5.9713 36.821-27.261 40.264m71.54-5.6093c5.8772-17.769 11.621-35.138 12.281-37.076 4.2892 12.573 8.4784 25.11 12.291 36.629 7.7253-2.2153 14.815-6.36 20.522-12.051-5.3672-14.042-10.726-28.087-16.068-42.138-0.70703-1.8594-1.6301-2.6132-3.6402-2.5502-4.1902 0.13096-8.3874 0.038988-12.582 0.038988-4.3342 0-8.6724 0.11296-13.001-0.047985-2.1801-0.079975-3.1961 0.71078-3.9312 2.7262-2.8131 7.7066-5.7962 15.35-8.7274 23.014-2.5941 6.7859-5.1862 13.573-7.7783 20.36 5.8562 5.4043 12.933 9.1961 20.634 11.096m62.672 33.432c0.67803 1.7705 1.077 2.9351-1.5641 3.4649-6.7013 1.3426-13.345 2.9851-19.993 4.5826-2.1051 0.50584-2.9651-0.23893-3.5241-2.2763-1.3251-4.0327-2.9291-8.9402-4.7502-14.505 7.9873-2.4502 15.49-6.2581 22.181-11.252 2.5511 6.6619 5.0982 13.324 7.6503 19.985" fill="#0065D6"/>
        <path d="m89.164 45.028c9.3908 12.065 24.03 19.835 40.49 19.835 16.925 0 31.932-8.2091 41.28-20.863l15.066 8.9316c-12.298 18.152-32.943 30.068-56.346 30.068-22.976 0-43.284-11.491-55.654-29.087l15.164-8.8852z" fill="#EE1059"/>
    </g>
</svg>
