<svg xmlns="http://www.w3.org/2000/svg" xmlns:xlink="http://www.w3.org/1999/xlink" width="168" height="168" viewBox="0 0 168 168">
    <defs>
        <circle id="a" cx="84" cy="84" r="84"/>
    </defs>
    <g fill="none" fill-rule="evenodd">
        <mask id="b" fill="#fff">
            <use xlink:href="#a"/>
        </mask>
        <circle cx="84" cy="84" r="83" stroke="#003EFF" stroke-width="2"/>
        <path fill="#003EFF" fill-rule="nonzero" d="M58.52 65.755c1.186-7.04 2.202-18.038 8.701-19.668 3.233-.81 14.275 8.18 29.562.048 5.05-2.686 10.125 11.33 12.356 17.895.501 7.75-.113 15.71-1.919 23.169-2.185 9.022-7.266 18.944-17.687 19.528-.197.012-.205 1.66-.001 1.648 2.739-.15 5.146-.882 7.253-2.04-.018 2.505-.098 5.013.047 7.514-.077.015-.152.017-.23.052-7.448 3.296-17.618 1.887-25.386.549-.06-.011-.11.004-.166.004.014-.188.033-.372.045-.561.184-2.911.059-5.836.073-8.754a17.938 17.938 0 0 0 6.224 2.47c1.049.204 1.293-1.431.252-1.63-8.395-1.624-13.078-9.116-15.665-16.667-2.571-7.5-3.439-15.648-3.459-23.557zm-2.051-1.082c.144.24.279.508.407.8-.009 5.177.371 10.419 1.306 15.545-4.99-.708-6.98-6.082-7.076-10.637-.08-3.82.864-8.908 5.363-5.708zm54.599.3c4.79-3.663 5.754 1.603 5.659 5.512-.105 4.4-1.985 9.562-6.613 10.53.779-5.245.992-10.628.712-15.925a.687.687 0 0 0 .242-.116zm36.643 93.516c-1.563-3.973-3.791-7.996-6.663-11.268-4.697-5.348-12.255-8.36-18.932-10.533-11.105-3.617-22.513-7.904-23.675-21.332-.283-3.306-.135-6.633-.143-9.946 5.313-3.684 8.499-10.24 10.25-16.731a66.542 66.542 0 0 0 1.326-6.067c6.378-.998 8.483-7.697 8.417-13.563-.047-4.097-1.801-7.367-4.902-6.894l.084-.063s11.89-42.831-30.635-42.082c-42.527.749-30.412 42.323-30.412 42.323l.033-.004c-1.84.884-2.867 3.506-2.912 6.612-.088 6.026 2.101 12.958 8.895 13.678.024.003.039-.007.061-.006.564 2.73 1.277 5.428 2.2 8.053 1.822 5.18 4.731 10.157 8.968 13.429-.072 3.733.143 7.469-.188 11.192-.001-.001-1.093 4.932-3.34 9.625-.477.725-.99 1.432-1.564 2.104-4.758 5.566-12.161 7.382-18.836 9.53-6.685 2.154-14.251 5.16-18.966 10.494-2.932 3.317-5.199 7.416-6.777 11.449 28.717 8.178 50.021 12.267 63.913 12.267 14.489 0 35.754-4.09 63.798-12.267z" mask="url(#b)"/>
    </g>
</svg>
