<svg xmlns="http://www.w3.org/2000/svg" width="267" height="48" viewBox="0 0 267 48">
    <g fill="none" fill-rule="evenodd">
        <path fill="#1E1D20" d="M78.176 27.92v7.252h-3.36V31H59.78v4.172h-3.388l.028-7.252h.84c1.232-.056 2.095-.966 2.59-2.73.495-1.764.798-4.289.91-7.574l.224-6.216h14.364v16.52h2.828zm-14.224-9.968c-.093 2.539-.299 4.653-.616 6.342-.317 1.69-.821 2.898-1.512 3.626h9.94V14.48h-7.672l-.14 3.472zm23.912 13.244c-1.512 0-2.875-.327-4.088-.98a7.146 7.146 0 0 1-2.842-2.73c-.681-1.167-1.022-2.487-1.022-3.962s.34-2.79 1.022-3.948a7.175 7.175 0 0 1 2.842-2.716c1.213-.653 2.576-.98 4.088-.98 1.53 0 2.903.327 4.116.98a7.175 7.175 0 0 1 2.842 2.716c.681 1.157 1.022 2.473 1.022 3.948s-.34 2.795-1.022 3.962a7.146 7.146 0 0 1-2.842 2.73c-1.213.653-2.585.98-4.116.98zm0-2.996c1.288 0 2.352-.43 3.192-1.288.84-.859 1.26-1.988 1.26-3.388s-.42-2.53-1.26-3.388c-.84-.859-1.904-1.288-3.192-1.288-1.288 0-2.347.43-3.178 1.288-.83.859-1.246 1.988-1.246 3.388s.415 2.53 1.246 3.388c.83.859 1.89 1.288 3.178 1.288zm18.228 2.996c-1.55 0-2.94-.327-4.172-.98-1.232-.653-2.193-1.563-2.884-2.73-.69-1.167-1.036-2.487-1.036-3.962s.345-2.79 1.036-3.948c.69-1.157 1.647-2.063 2.87-2.716s2.618-.98 4.186-.98c1.475 0 2.767.299 3.878.896a5.813 5.813 0 0 1 2.506 2.576l-2.688 1.568c-.43-.69-.966-1.209-1.61-1.554a4.402 4.402 0 0 0-2.114-.518c-1.307 0-2.39.425-3.248 1.274-.859.85-1.288 1.983-1.288 3.402s.425 2.553 1.274 3.402c.85.85 1.937 1.274 3.262 1.274.765 0 1.47-.173 2.114-.518.644-.345 1.18-.863 1.61-1.554l2.688 1.568a6.059 6.059 0 0 1-2.534 2.59c-1.11.607-2.394.91-3.85.91zm23.576-15.148l-7 16.156c-.653 1.624-1.447 2.767-2.38 3.43-.933.663-2.063.994-3.388.994a6.954 6.954 0 0 1-2.212-.364c-.728-.243-1.325-.579-1.792-1.008l1.4-2.576c.336.317.733.57 1.19.756.457.187.92.28 1.386.28.616 0 1.125-.159 1.526-.476.401-.317.77-.85 1.106-1.596l.252-.588-6.524-15.008h3.64l4.704 11.06 4.732-11.06h3.36zm13.916 2.968h-7.98V31h-3.5V16.048h11.48v2.968zm10.276-2.968h3.5v9.856l8.26-9.856h3.192V31h-3.5v-9.856L157.08 31h-3.22V16.048zm34.188 15.148c-1.55 0-2.94-.327-4.172-.98-1.232-.653-2.193-1.563-2.884-2.73-.69-1.167-1.036-2.487-1.036-3.962s.345-2.79 1.036-3.948c.69-1.157 1.647-2.063 2.87-2.716s2.618-.98 4.186-.98c1.475 0 2.767.299 3.878.896a5.813 5.813 0 0 1 2.506 2.576l-2.688 1.568c-.43-.69-.966-1.209-1.61-1.554a4.402 4.402 0 0 0-2.114-.518c-1.307 0-2.39.425-3.248 1.274-.859.85-1.288 1.983-1.288 3.402s.425 2.553 1.274 3.402c.85.85 1.937 1.274 3.262 1.274.765 0 1.47-.173 2.114-.518.644-.345 1.18-.863 1.61-1.554l2.688 1.568a6.059 6.059 0 0 1-2.534 2.59c-1.11.607-2.394.91-3.85.91zm23.8-15.148V31h-3.472V19.016h-7.364V31h-3.5V16.048h14.336zm11.396 15.148c-1.512 0-2.875-.327-4.088-.98a7.146 7.146 0 0 1-2.842-2.73c-.681-1.167-1.022-2.487-1.022-3.962s.34-2.79 1.022-3.948a7.175 7.175 0 0 1 2.842-2.716c1.213-.653 2.576-.98 4.088-.98 1.53 0 2.903.327 4.116.98a7.175 7.175 0 0 1 2.842 2.716c.681 1.157 1.022 2.473 1.022 3.948s-.34 2.795-1.022 3.962a7.146 7.146 0 0 1-2.842 2.73c-1.213.653-2.585.98-4.116.98zm0-2.996c1.288 0 2.352-.43 3.192-1.288.84-.859 1.26-1.988 1.26-3.388s-.42-2.53-1.26-3.388c-.84-.859-1.904-1.288-3.192-1.288-1.288 0-2.347.43-3.178 1.288-.83.859-1.246 1.988-1.246 3.388s.415 2.53 1.246 3.388c.83.859 1.89 1.288 3.178 1.288zm19.712-12.32c1.456 0 2.758.317 3.906.952a6.865 6.865 0 0 1 2.702 2.688c.653 1.157.98 2.492.98 4.004 0 1.512-.327 2.851-.98 4.018a6.84 6.84 0 0 1-2.702 2.702c-1.148.635-2.45.952-3.906.952-2.016 0-3.612-.672-4.788-2.016v7.252h-3.5V16.048H238v1.96a5.415 5.415 0 0 1 2.142-1.596c.85-.355 1.787-.532 2.814-.532zm-.392 12.32c1.288 0 2.347-.43 3.178-1.288.83-.859 1.246-1.988 1.246-3.388s-.415-2.53-1.246-3.388c-.83-.859-1.89-1.288-3.178-1.288-.84 0-1.596.191-2.268.574a4.148 4.148 0 0 0-1.596 1.638c-.392.71-.588 1.53-.588 2.464 0 .933.196 1.755.588 2.464.392.71.924 1.255 1.596 1.638s1.428.574 2.268.574zm23.296-9.184h-5.236V31h-3.5V19.016h-5.264v-2.968h14v2.968z"/>
        <path fill="#FF9F00" d="M12.022 4.204l4.433-.599a.56.56 0 0 1 .628.48l5.71 42.514a.56.56 0 0 1-.48.63l-4.432.6a.56.56 0 0 1-.628-.482l-5.71-42.512a.56.56 0 0 1 .479-.631"/>
        <path fill="#003CFF" d="M34.805.135l3.398 2.917a.562.562 0 0 1 .061.79L10.452 36.432a.558.558 0 0 1-.788.061l-3.398-2.917a.562.562 0 0 1-.061-.79L34.017.195a.558.558 0 0 1 .788-.061"/>
        <path fill="#18171A" d="M43.23 32.617l-1.796 4.108a.558.558 0 0 1-.736.289L1.526 19.792a.561.561 0 0 1-.287-.738l1.795-4.11a.559.559 0 0 1 .737-.288l39.171 17.222a.561.561 0 0 1 .288.739"/>
        <path d="M2.693 17.584h44.112v10.891H2.693z"/>
        <path fill="#E00" d="M46.247 18.075l.554 4.451a.56.56 0 0 1-.485.626l-42.44 5.319a.56.56 0 0 1-.624-.487l-.554-4.451a.56.56 0 0 1 .485-.626l42.44-5.319a.56.56 0 0 1 .624.487"/>
    </g>
</svg>
