<svg xmlns="http://www.w3.org/2000/svg" width="64" height="64" viewBox="0 0 64 64">
    <g fill="none" fill-rule="evenodd">
        <path fill="#41ABE1" fill-rule="nonzero" d="M31.821 0c-8.64 0-9.725.038-13.12.195-2.64.051-5.251.55-7.723 1.476a15.599 15.599 0 0 0-5.636 3.671 15.599 15.599 0 0 0-3.671 5.636A23.322 23.322 0 0 0 .195 18.7C.038 22.096 0 23.181 0 31.821c0 8.64.038 9.725.195 13.12.051 2.64.55 5.251 1.476 7.723A15.599 15.599 0 0 0 5.342 58.3a15.599 15.599 0 0 0 5.636 3.672 23.322 23.322 0 0 0 7.723 1.475c3.395.157 4.48.195 13.12.195 8.64 0 9.725-.038 13.12-.195 2.64-.051 5.251-.55 7.723-1.475a16.271 16.271 0 0 0 9.308-9.308 23.322 23.322 0 0 0 1.475-7.723c.157-3.395.195-4.48.195-13.12 0-8.64-.038-9.725-.195-13.12a23.322 23.322 0 0 0-1.475-7.723A15.599 15.599 0 0 0 58.3 5.342a15.599 15.599 0 0 0-5.636-3.671A23.322 23.322 0 0 0 44.941.195C41.546.038 40.461 0 31.821 0z"/>
        <path fill="#FFF" d="M51.577 19.712a15.878 15.878 0 0 1-4.547 1.243 7.914 7.914 0 0 0 3.476-4.38 15.858 15.858 0 0 1-5.024 1.923A7.908 7.908 0 0 0 39.704 16a7.916 7.916 0 0 0-7.706 9.715c-6.578-.328-12.408-3.482-16.31-8.27a7.889 7.889 0 0 0-1.07 3.976 7.902 7.902 0 0 0 3.521 6.584 7.896 7.896 0 0 1-3.585-.99v.098a7.916 7.916 0 0 0 6.348 7.758 7.934 7.934 0 0 1-3.574.132 7.924 7.924 0 0 0 7.39 5.497 15.873 15.873 0 0 1-9.83 3.39c-.64 0-1.266-.04-1.888-.11a22.396 22.396 0 0 0 12.132 3.557c14.555 0 22.514-12.057 22.514-22.514 0-.346-.006-.685-.023-1.025a16.005 16.005 0 0 0 3.948-4.097l.006.011z"/>
    </g>
</svg>
